info face="SHELMAN" size=72 bold=0 italic=0 charset="" unicode=1 stretchH=100 smooth=1 aa=1 padding=0,0,0,0 spacing=1,1 outline=0
common lineHeight=72 base=57 scaleW=1024 scaleH=1024 pages=1 packed=0 alphaChnl=1 redChnl=0 greenChnl=0 blueChnl=0
page id=0 file="shelman_0.png"
chars count=202
char id=61472 x=1013  y=46    width=3     height=1     xoffset=-1    yoffset=71    xadvance=17    page=0  chnl=15
char id=61473 x=655   y=96    width=19    height=42    xoffset=-1    yoffset=15    xadvance=17    page=0  chnl=15
char id=61474 x=825   y=168   width=13    height=8     xoffset=-1    yoffset=16    xadvance=11    page=0  chnl=15
char id=61475 x=396   y=177   width=29    height=22    xoffset=-1    yoffset=19    xadvance=27    page=0  chnl=15
char id=61476 x=634   y=96    width=20    height=42    xoffset=0     yoffset=15    xadvance=20    page=0  chnl=15
char id=61477 x=840   y=49    width=31    height=42    xoffset=0     yoffset=15    xadvance=32    page=0  chnl=15
char id=61478 x=808   y=50    width=31    height=42    xoffset=0     yoffset=15    xadvance=32    page=0  chnl=15
char id=61479 x=775   y=170   width=7     height=9     xoffset=-1    yoffset=15    xadvance=6     page=0  chnl=15
char id=61480 x=695   y=96    width=18    height=42    xoffset=-1    yoffset=15    xadvance=15    page=0  chnl=15
char id=61481 x=732   y=96    width=16    height=42    xoffset=-1    yoffset=15    xadvance=14    page=0  chnl=15
char id=61482 x=839   y=168   width=10    height=8     xoffset=0     yoffset=16    xadvance=10    page=0  chnl=15
char id=61483 x=649   y=174   width=15    height=13    xoffset=1     yoffset=27    xadvance=17    page=0  chnl=15
char id=61484 x=861   y=166   width=8     height=8     xoffset=-1    yoffset=52    xadvance=7     page=0  chnl=15
char id=61485 x=922   y=163   width=24    height=6     xoffset=-1    yoffset=33    xadvance=21    page=0  chnl=15
char id=61486 x=1010  y=148   width=6     height=5     xoffset=-1    yoffset=52    xadvance=5     page=0  chnl=15
char id=61487 x=306   y=55    width=36    height=42    xoffset=-3    yoffset=15    xadvance=31    page=0  chnl=15
char id=61488 x=580   y=53    width=32    height=42    xoffset=-1    yoffset=15    xadvance=31    page=0  chnl=15
char id=61489 x=520   y=96    width=22    height=42    xoffset=4     yoffset=15    xadvance=31    page=0  chnl=15
char id=61490 x=744   y=51    width=31    height=42    xoffset=0     yoffset=15    xadvance=31    page=0  chnl=15
char id=61491 x=301   y=99    width=28    height=42    xoffset=1     yoffset=15    xadvance=31    page=0  chnl=15
char id=61492 x=966   y=49    width=30    height=42    xoffset=0     yoffset=15    xadvance=31    page=0  chnl=15
char id=61493 x=613   y=53    width=32    height=42    xoffset=-1    yoffset=15    xadvance=31    page=0  chnl=15
char id=61494 x=330   y=98    width=28    height=42    xoffset=1     yoffset=15    xadvance=31    page=0  chnl=15
char id=61495 x=0     y=104   width=30    height=42    xoffset=0     yoffset=15    xadvance=31    page=0  chnl=15
char id=61496 x=646   y=53    width=32    height=42    xoffset=-1    yoffset=15    xadvance=31    page=0  chnl=15
char id=61497 x=272   y=99    width=28    height=42    xoffset=1     yoffset=15    xadvance=31    page=0  chnl=15
char id=61498 x=612   y=96    width=21    height=42    xoffset=-1    yoffset=15    xadvance=19    page=0  chnl=15
char id=61499 x=471   y=97    width=24    height=42    xoffset=-2    yoffset=15    xadvance=21    page=0  chnl=15
char id=61500 x=775   y=136   width=29    height=33    xoffset=0     yoffset=20    xadvance=29    page=0  chnl=15
char id=61501 x=509   y=175   width=34    height=15    xoffset=2     yoffset=31    xadvance=39    page=0  chnl=15
char id=61502 x=745   y=139   width=29    height=33    xoffset=0     yoffset=21    xadvance=29    page=0  chnl=15
char id=61503 x=182   y=99    width=29    height=42    xoffset=-2    yoffset=15    xadvance=26    page=0  chnl=15
char id=61504 x=615   y=174   width=17    height=13    xoffset=-1    yoffset=28    xadvance=16    page=0  chnl=15
char id=61505 x=480   y=54    width=33    height=42    xoffset=-2    yoffset=15    xadvance=29    page=0  chnl=15
char id=61506 x=446   y=54    width=33    height=42    xoffset=-1    yoffset=15    xadvance=30    page=0  chnl=15
char id=61507 x=212   y=99    width=29    height=42    xoffset=-1    yoffset=15    xadvance=26    page=0  chnl=15
char id=61508 x=343   y=55    width=34    height=42    xoffset=-2    yoffset=15    xadvance=31    page=0  chnl=15
char id=61509 x=378   y=55    width=33    height=42    xoffset=-2    yoffset=15    xadvance=27    page=0  chnl=15
char id=61510 x=62    y=102   width=29    height=42    xoffset=-2    yoffset=15    xadvance=20    page=0  chnl=15
char id=61511 x=935   y=49    width=30    height=42    xoffset=-2    yoffset=15    xadvance=26    page=0  chnl=15
char id=61512 x=92    y=101   width=29    height=42    xoffset=-1    yoffset=15    xadvance=26    page=0  chnl=15
char id=61513 x=997   y=48    width=26    height=42    xoffset=-2    yoffset=15    xadvance=23    page=0  chnl=15
char id=61514 x=712   y=53    width=31    height=42    xoffset=-2    yoffset=15    xadvance=23    page=0  chnl=15
char id=61515 x=122   y=99    width=29    height=42    xoffset=-1    yoffset=15    xadvance=27    page=0  chnl=15
char id=61516 x=514   y=53    width=32    height=42    xoffset=-2    yoffset=15    xadvance=28    page=0  chnl=15
char id=61517 x=267   y=56    width=38    height=42    xoffset=-1    yoffset=15    xadvance=36    page=0  chnl=15
char id=61518 x=776   y=51    width=31    height=42    xoffset=-1    yoffset=15    xadvance=28    page=0  chnl=15
char id=61519 x=242   y=99    width=29    height=42    xoffset=-1    yoffset=15    xadvance=27    page=0  chnl=15
char id=61520 x=412   y=54    width=33    height=42    xoffset=-2    yoffset=15    xadvance=26    page=0  chnl=15
char id=61521 x=444   y=97    width=26    height=42    xoffset=-1    yoffset=15    xadvance=24    page=0  chnl=15
char id=61522 x=679   y=53    width=32    height=42    xoffset=-2    yoffset=15    xadvance=27    page=0  chnl=15
char id=61523 x=31    y=104   width=30    height=42    xoffset=-2    yoffset=15    xadvance=27    page=0  chnl=15
char id=61524 x=872   y=49    width=31    height=42    xoffset=-2    yoffset=15    xadvance=21    page=0  chnl=15
char id=61525 x=904   y=49    width=30    height=42    xoffset=-1    yoffset=15    xadvance=28    page=0  chnl=15
char id=61526 x=388   y=98    width=27    height=42    xoffset=-2    yoffset=15    xadvance=20    page=0  chnl=15
char id=61527 x=227   y=56    width=39    height=42    xoffset=-1    yoffset=15    xadvance=36    page=0  chnl=15
char id=61528 x=0     y=58    width=38    height=45    xoffset=-2    yoffset=14    xadvance=34    page=0  chnl=15
char id=61529 x=416   y=97    width=27    height=42    xoffset=-2    yoffset=15    xadvance=21    page=0  chnl=15
char id=61530 x=547   y=53    width=32    height=42    xoffset=-2    yoffset=15    xadvance=29    page=0  chnl=15
char id=61531 x=39    y=57    width=18    height=44    xoffset=2     yoffset=21    xadvance=20    page=0  chnl=15
char id=61532 x=880   y=133   width=30    height=29    xoffset=-3    yoffset=27    xadvance=27    page=0  chnl=15
char id=61533 x=58    y=57    width=18    height=44    xoffset=-1    yoffset=21    xadvance=17    page=0  chnl=15
char id=61534 x=484   y=176   width=24    height=18    xoffset=2     yoffset=16    xadvance=27    page=0  chnl=15
char id=61535 x=22    y=215   width=39    height=2     xoffset=0     yoffset=58    xadvance=39    page=0  chnl=15
char id=61536 x=748   y=173   width=12    height=10    xoffset=3     yoffset=23    xadvance=17    page=0  chnl=15
char id=61537 x=143   y=181   width=21    height=26    xoffset=-1    yoffset=31    xadvance=20    page=0  chnl=15
char id=61538 x=589   y=96    width=22    height=42    xoffset=-1    yoffset=15    xadvance=19    page=0  chnl=15
char id=61539 x=359   y=178   width=18    height=25    xoffset=-1    yoffset=32    xadvance=15    page=0  chnl=15
char id=61540 x=359   y=98    width=28    height=42    xoffset=-2    yoffset=15    xadvance=23    page=0  chnl=15
char id=61541 x=339   y=178   width=19    height=25    xoffset=-1    yoffset=32    xadvance=17    page=0  chnl=15
char id=61542 x=543   y=96    width=22    height=42    xoffset=-2    yoffset=15    xadvance=12    page=0  chnl=15
char id=61543 x=855   y=92    width=23    height=40    xoffset=-2    yoffset=31    xadvance=20    page=0  chnl=15
char id=61544 x=566   y=96    width=22    height=42    xoffset=-1    yoffset=15    xadvance=19    page=0  chnl=15
char id=61545 x=652   y=139   width=14    height=34    xoffset=-1    yoffset=23    xadvance=12    page=0  chnl=15
char id=61546 x=749   y=94    width=15    height=42    xoffset=-2    yoffset=25    xadvance=12    page=0  chnl=15
char id=61547 x=496   y=97    width=23    height=42    xoffset=-2    yoffset=15    xadvance=19    page=0  chnl=15
char id=61548 x=714   y=96    width=17    height=42    xoffset=-2    yoffset=15    xadvance=12    page=0  chnl=15
char id=61549 x=165   y=181   width=32    height=25    xoffset=-1    yoffset=32    xadvance=31    page=0  chnl=15
char id=61550 x=252   y=179   width=22    height=25    xoffset=-1    yoffset=32    xadvance=20    page=0  chnl=15
char id=61551 x=120   y=183   width=22    height=26    xoffset=-1    yoffset=31    xadvance=20    page=0  chnl=15
char id=61552 x=828   y=93    width=26    height=40    xoffset=-2    yoffset=31    xadvance=22    page=0  chnl=15
char id=61553 x=879   y=92    width=23    height=40    xoffset=-2    yoffset=31    xadvance=20    page=0  chnl=15
char id=61554 x=319   y=179   width=19    height=25    xoffset=-1    yoffset=32    xadvance=16    page=0  chnl=15
char id=61555 x=378   y=177   width=17    height=25    xoffset=-1    yoffset=32    xadvance=14    page=0  chnl=15
char id=61556 x=0     y=147   width=18    height=39    xoffset=-2    yoffset=18    xadvance=12    page=0  chnl=15
char id=61557 x=228   y=180   width=23    height=25    xoffset=-1    yoffset=32    xadvance=21    page=0  chnl=15
char id=61558 x=298   y=179   width=20    height=25    xoffset=-1    yoffset=32    xadvance=17    page=0  chnl=15
char id=61559 x=198   y=180   width=29    height=25    xoffset=-1    yoffset=32    xadvance=27    page=0  chnl=15
char id=61560 x=0     y=187   width=26    height=27    xoffset=-2    yoffset=31    xadvance=22    page=0  chnl=15
char id=61561 x=903   y=92    width=23    height=40    xoffset=-1    yoffset=31    xadvance=20    page=0  chnl=15
char id=61562 x=275   y=179   width=22    height=25    xoffset=-1    yoffset=32    xadvance=20    page=0  chnl=15
char id=61563 x=919   y=0     width=28    height=48    xoffset=-2    yoffset=15    xadvance=26    page=0  chnl=15
char id=61564 x=352   y=141   width=8     height=36    xoffset=3     yoffset=22    xadvance=14    page=0  chnl=15
char id=61565 x=948   y=0     width=28    height=48    xoffset=-1    yoffset=15    xadvance=26    page=0  chnl=15
char id=61566 x=870   y=165   width=21    height=7     xoffset=1     yoffset=19    xadvance=24    page=0  chnl=15
char id=61573 x=783   y=170   width=41    height=8     xoffset=2     yoffset=50    xadvance=44    page=0  chnl=15
char id=61574 x=95    y=184   width=24    height=26    xoffset=1     yoffset=31    xadvance=27    page=0  chnl=15
char id=61576 x=761   y=173   width=13    height=9     xoffset=0     yoffset=25    xadvance=13    page=0  chnl=15
char id=61578 x=828   y=0     width=30    height=48    xoffset=-2    yoffset=9     xadvance=26    page=0  chnl=15
char id=61580 x=172   y=56    width=54    height=42    xoffset=0     yoffset=15    xadvance=55    page=0  chnl=15
char id=61585 x=700   y=173   width=9     height=11    xoffset=0     yoffset=17    xadvance=9     page=0  chnl=15
char id=61586 x=690   y=173   width=9     height=11    xoffset=-1    yoffset=16    xadvance=8     page=0  chnl=15
char id=61587 x=579   y=174   width=17    height=13    xoffset=0     yoffset=16    xadvance=16    page=0  chnl=15
char id=61588 x=597   y=174   width=17    height=13    xoffset=-1    yoffset=15    xadvance=15    page=0  chnl=15
char id=61589 x=562   y=174   width=16    height=15    xoffset=1     yoffset=24    xadvance=18    page=0  chnl=15
char id=61590 x=0     y=215   width=21    height=5     xoffset=1     yoffset=37    xadvance=24    page=0  chnl=15
char id=61591 x=947   y=162   width=32    height=5     xoffset=1     yoffset=37    xadvance=34    page=0  chnl=15
char id=61592 x=980   y=160   width=24    height=5     xoffset=1     yoffset=22    xadvance=27    page=0  chnl=15
char id=61593 x=710   y=173   width=24    height=10    xoffset=0     yoffset=20    xadvance=24    page=0  chnl=15
char id=61594 x=862   y=133   width=17    height=31    xoffset=-1    yoffset=26    xadvance=14    page=0  chnl=15
char id=61596 x=27    y=186   width=37    height=26    xoffset=0     yoffset=31    xadvance=37    page=0  chnl=15
char id=61599 x=738   y=0     width=27    height=50    xoffset=0     yoffset=7     xadvance=22    page=0  chnl=15
char id=61600 x=738   y=51    width=3     height=1     xoffset=-1    yoffset=71    xadvance=17    page=0  chnl=15
char id=61601 x=675   y=96    width=19    height=42    xoffset=0     yoffset=15    xadvance=19    page=0  chnl=15
char id=61602 x=911   y=133   width=13    height=29    xoffset=0     yoffset=22    xadvance=13    page=0  chnl=15
char id=61603 x=765   y=94    width=32    height=41    xoffset=4     yoffset=17    xadvance=37    page=0  chnl=15
char id=61605 x=152   y=99    width=29    height=42    xoffset=-1    yoffset=15    xadvance=22    page=0  chnl=15
char id=61606 x=1013  y=0     width=8     height=37    xoffset=2     yoffset=20    xadvance=11    page=0  chnl=15
char id=61607 x=927   y=92    width=22    height=40    xoffset=3     yoffset=17    xadvance=29    page=0  chnl=15
char id=61608 x=1005  y=160   width=13    height=5     xoffset=2     yoffset=21    xadvance=15    page=0  chnl=15
char id=61609 x=544   y=174   width=17    height=15    xoffset=1     yoffset=20    xadvance=18    page=0  chnl=15
char id=61610 x=678   y=173   width=11    height=12    xoffset=0     yoffset=24    xadvance=11    page=0  chnl=15
char id=61611 x=925   y=133   width=24    height=28    xoffset=0     yoffset=31    xadvance=25    page=0  chnl=15
char id=61613 x=892   y=163   width=29    height=6     xoffset=1     yoffset=41    xadvance=31    page=0  chnl=15
char id=61614 x=633   y=174   width=15    height=13    xoffset=0     yoffset=21    xadvance=15    page=0  chnl=15
char id=61615 x=62    y=213   width=12    height=2     xoffset=-1    yoffset=34    xadvance=10    page=0  chnl=15
char id=61616 x=850   y=166   width=10    height=8     xoffset=0     yoffset=27    xadvance=10    page=0  chnl=15
char id=61617 x=1010  y=132   width=13    height=15    xoffset=1     yoffset=29    xadvance=16    page=0  chnl=15
char id=61618 x=448   y=176   width=20    height=20    xoffset=0     yoffset=24    xadvance=21    page=0  chnl=15
char id=61619 x=426   y=177   width=21    height=20    xoffset=0     yoffset=24    xadvance=21    page=0  chnl=15
char id=61620 x=735   y=173   width=12    height=10    xoffset=3     yoffset=23    xadvance=17    page=0  chnl=15
char id=61622 x=766   y=0     width=27    height=50    xoffset=-2    yoffset=7     xadvance=22    page=0  chnl=15
char id=61624 x=1013  y=38    width=9     height=7     xoffset=0     yoffset=57    xadvance=9     page=0  chnl=15
char id=61625 x=469   y=176   width=14    height=20    xoffset=3     yoffset=24    xadvance=21    page=0  chnl=15
char id=61626 x=665   y=174   width=12    height=12    xoffset=-1    yoffset=25    xadvance=11    page=0  chnl=15
char id=61627 x=950   y=133   width=24    height=28    xoffset=0     yoffset=30    xadvance=25    page=0  chnl=15
char id=61628 x=585   y=139   width=42    height=34    xoffset=5     yoffset=24    xadvance=52    page=0  chnl=15
char id=61629 x=541   y=139   width=43    height=34    xoffset=5     yoffset=24    xadvance=52    page=0  chnl=15
char id=61630 x=495   y=140   width=45    height=34    xoffset=3     yoffset=24    xadvance=52    page=0  chnl=15
char id=61631 x=798   y=94    width=29    height=41    xoffset=0     yoffset=15    xadvance=30    page=0  chnl=15
char id=61632 x=275   y=0     width=33    height=54    xoffset=1     yoffset=3     xadvance=34    page=0  chnl=15
char id=61633 x=0     y=0     width=33    height=57    xoffset=1     yoffset=0     xadvance=34    page=0  chnl=15
char id=61634 x=96    y=0     width=33    height=55    xoffset=1     yoffset=2     xadvance=34    page=0  chnl=15
char id=61635 x=794   y=0     width=33    height=49    xoffset=1     yoffset=8     xadvance=35    page=0  chnl=15
char id=61636 x=533   y=0     width=33    height=52    xoffset=1     yoffset=5     xadvance=34    page=0  chnl=15
char id=61637 x=407   y=0     width=33    height=53    xoffset=1     yoffset=4     xadvance=34    page=0  chnl=15
char id=61638 x=110   y=56    width=61    height=42    xoffset=0     yoffset=15    xadvance=61    page=0  chnl=15
char id=61639 x=859   y=0     width=29    height=48    xoffset=0     yoffset=15    xadvance=30    page=0  chnl=15
char id=61640 x=343   y=0     width=33    height=54    xoffset=0     yoffset=3     xadvance=30    page=0  chnl=15
char id=61641 x=441   y=0     width=33    height=53    xoffset=0     yoffset=4     xadvance=30    page=0  chnl=15
char id=61642 x=309   y=0     width=33    height=54    xoffset=0     yoffset=3     xadvance=30    page=0  chnl=15
char id=61643 x=499   y=0     width=33    height=52    xoffset=0     yoffset=5     xadvance=30    page=0  chnl=15
char id=61644 x=248   y=0     width=26    height=55    xoffset=0     yoffset=2     xadvance=24    page=0  chnl=15
char id=61645 x=687   y=0     width=26    height=52    xoffset=0     yoffset=5     xadvance=24    page=0  chnl=15
char id=61646 x=221   y=0     width=26    height=55    xoffset=0     yoffset=2     xadvance=24    page=0  chnl=15
char id=61647 x=660   y=0     width=26    height=52    xoffset=0     yoffset=5     xadvance=24    page=0  chnl=15
char id=61648 x=667   y=139   width=40    height=33    xoffset=0     yoffset=24    xadvance=41    page=0  chnl=15
char id=61649 x=567   y=0     width=31    height=52    xoffset=0     yoffset=5     xadvance=32    page=0  chnl=15
char id=61650 x=161   y=0     width=29    height=55    xoffset=0     yoffset=2     xadvance=30    page=0  chnl=15
char id=61651 x=377   y=0     width=29    height=54    xoffset=0     yoffset=3     xadvance=30    page=0  chnl=15
char id=61652 x=191   y=0     width=29    height=55    xoffset=0     yoffset=2     xadvance=30    page=0  chnl=15
char id=61653 x=889   y=0     width=29    height=48    xoffset=0     yoffset=9     xadvance=27    page=0  chnl=15
char id=61654 x=630   y=0     width=29    height=52    xoffset=0     yoffset=5     xadvance=30    page=0  chnl=15
char id=61655 x=65    y=186   width=29    height=26    xoffset=1     yoffset=31    xadvance=31    page=0  chnl=15
char id=61656 x=77    y=57    width=32    height=43    xoffset=-1    yoffset=15    xadvance=30    page=0  chnl=15
char id=61657 x=130   y=0     width=30    height=55    xoffset=0     yoffset=2     xadvance=31    page=0  chnl=15
char id=61658 x=65    y=0     width=30    height=56    xoffset=0     yoffset=1     xadvance=31    page=0  chnl=15
char id=61659 x=34    y=0     width=30    height=56    xoffset=0     yoffset=1     xadvance=31    page=0  chnl=15
char id=61660 x=599   y=0     width=30    height=52    xoffset=0     yoffset=5     xadvance=31    page=0  chnl=15
char id=61661 x=19    y=147   width=33    height=38    xoffset=1     yoffset=20    xadvance=34    page=0  chnl=15
char id=61662 x=708   y=139   width=36    height=33    xoffset=0     yoffset=24    xadvance=36    page=0  chnl=15
char id=61663 x=53    y=147   width=28    height=38    xoffset=1     yoffset=16    xadvance=31    page=0  chnl=15
char id=61664 x=153   y=142   width=21    height=38    xoffset=0     yoffset=19    xadvance=21    page=0  chnl=15
char id=61665 x=950   y=92    width=21    height=40    xoffset=0     yoffset=17    xadvance=21    page=0  chnl=15
char id=61666 x=219   y=142   width=21    height=37    xoffset=0     yoffset=20    xadvance=21    page=0  chnl=15
char id=61667 x=361   y=141   width=25    height=35    xoffset=0     yoffset=22    xadvance=23    page=0  chnl=15
char id=61668 x=437   y=140   width=21    height=35    xoffset=0     yoffset=22    xadvance=21    page=0  chnl=15
char id=61669 x=459   y=140   width=21    height=35    xoffset=0     yoffset=22    xadvance=21    page=0  chnl=15
char id=61670 x=975   y=132   width=34    height=27    xoffset=0     yoffset=31    xadvance=33    page=0  chnl=15
char id=61671 x=843   y=134   width=18    height=31    xoffset=0     yoffset=32    xadvance=18    page=0  chnl=15
char id=61672 x=175   y=142   width=19    height=38    xoffset=0     yoffset=19    xadvance=18    page=0  chnl=15
char id=61673 x=304   y=142   width=19    height=36    xoffset=0     yoffset=21    xadvance=18    page=0  chnl=15
char id=61674 x=284   y=142   width=19    height=36    xoffset=0     yoffset=21    xadvance=18    page=0  chnl=15
char id=61675 x=264   y=142   width=19    height=36    xoffset=0     yoffset=21    xadvance=18    page=0  chnl=15
char id=61676 x=338   y=141   width=13    height=36    xoffset=0     yoffset=21    xadvance=13    page=0  chnl=15
char id=61677 x=324   y=142   width=13    height=36    xoffset=0     yoffset=21    xadvance=13    page=0  chnl=15
char id=61678 x=481   y=140   width=13    height=35    xoffset=0     yoffset=22    xadvance=13    page=0  chnl=15
char id=61679 x=805   y=136   width=13    height=33    xoffset=-1    yoffset=24    xadvance=13    page=0  chnl=15
char id=61681 x=412   y=141   width=24    height=35    xoffset=-1    yoffset=22    xadvance=21    page=0  chnl=15
char id=61682 x=972   y=92    width=22    height=39    xoffset=0     yoffset=18    xadvance=21    page=0  chnl=15
char id=61683 x=995   y=92    width=22    height=39    xoffset=0     yoffset=18    xadvance=21    page=0  chnl=15
char id=61684 x=130   y=142   width=22    height=38    xoffset=0     yoffset=19    xadvance=21    page=0  chnl=15
char id=61685 x=387   y=141   width=24    height=35    xoffset=-1    yoffset=22    xadvance=21    page=0  chnl=15
char id=61686 x=241   y=142   width=22    height=36    xoffset=0     yoffset=21    xadvance=21    page=0  chnl=15
char id=61688 x=819   y=136   width=23    height=31    xoffset=-1    yoffset=27    xadvance=21    page=0  chnl=15
char id=61689 x=106   y=144   width=23    height=38    xoffset=0     yoffset=19    xadvance=23    page=0  chnl=15
char id=61690 x=82    y=145   width=23    height=38    xoffset=0     yoffset=19    xadvance=23    page=0  chnl=15
char id=61691 x=195   y=142   width=23    height=37    xoffset=0     yoffset=20    xadvance=23    page=0  chnl=15
char id=61692 x=628   y=139   width=23    height=34    xoffset=0     yoffset=23    xadvance=23    page=0  chnl=15
char id=61693 x=475   y=0     width=23    height=53    xoffset=-1    yoffset=18    xadvance=23    page=0  chnl=15
char id=61694 x=977   y=0     width=35    height=47    xoffset=0     yoffset=20    xadvance=35    page=0  chnl=15
char id=61695 x=714   y=0     width=23    height=51    xoffset=0     yoffset=20    xadvance=22    page=0  chnl=15
